{
    "version": "1.0.0",
    "summary": "my implementation of todo-mvc in Elm",
    "repository": "https://github.com/mauropalsgraaf/elm-todo-mvc.git",
    "license": "None",
    "source-directories": [
        "src"
    ],
    "exposed-modules": [],
    "dependencies": {
        "elm-lang/core": "5.1.1 <= v < 6.0.0",
        "elm-lang/html": "2.0.0 <= v < 3.0.0",
        "elm-lang/http": "1.0.0 <= v < 2.0.0"
    },
    "elm-version": "0.18.0 <= v < 0.19.0"
}
